............
----------------------------------------------------------------------
Ran 12 tests in 0.005s

OK
Name             Stmts   Miss Branch BrPart  Cover   Missing
------------------------------------------------------------
Collatz.py          30      0     12      0   100%
TestCollatz.py      51      0      6      0   100%
------------------------------------------------------------
TOTAL               81      0     18      0   100%
