...........
----------------------------------------------------------------------
Ran 11 tests in 0.971s

OK
Name             Stmts   Miss Branch BrPart  Cover   Missing
------------------------------------------------------------
Collatz.py          25      0     10      0   100%
TestCollatz.py      53      4      0      0    92%   91-94
------------------------------------------------------------
TOTAL               78      4     10      0    95%
