1 10 20
100 200 125
201 210 89
900 1000 174
10 1 20
200 100 125
210 201 89
1000 900 174
1 1 1
100 100 26
50768 50768 84
1 2 2
1 3 8
1 4 8
1 5 8
1 6 9
1 7 17
1 8 17
1 9 20
1 999 179
1 1000 179
1 1001 179
999 999 50
999 1000 112
1000 1000 112
1000 1001 143
999 1001 143
599 999 179
599 1000 179
599 1001 179
1000 2000 182
2000 3000 217
3000 4000 238
4000 5000 215
5000 6000 236
6000 7000 262
7000 8000 252
8000 9000 247
9000 10000 260
999999 999999 259
999900 999999 259
999990 999999 259
999999 999900 259
999999 999990 259
1 100000 351
2499 2500 178
2499 2501 178
999899 999999 259
849 850 60
849 851 60
4999 4999 91
4999 5000 91
4999 5001 91
5000 5000 29
5000 5001 65
8999 8999 185
8999 9000 185
8999 9001 185
9000 9000 48
9000 9001 141
10999 10999 69
10999 10000 268
10999 11001 69
11000 11000 43
11000 11001 69
10500 10599 193
11999 11999 188
11999 12000 188
11999 12001 188
12000 12000 51
12000 12001 144
217999 217999 156
217999 218000 156
217999 218001 156
218000 218000 94
218000 218001 156
654999 654999 186
654999 655000 186
654999 655001 186
655000 655000 186
655000 655001 186
982999 982999 259
982999 983000 259
982999 983001 259
983000 983000 259
983000 983001 259
809210 809210 163
809210 810518 406
809210 810517 406
809210 810519 406
289370 288782 345
102855 103754 248
632657 632618 248
712526 713001 411
453738 454209 338
331919 332500 353
985656 986132 321
664330 665020 323
312967 313756 340
252848 253286 306
157077 157763 339
746591 747254 349
16856 99124 351
922727 923140 383
