1 10 20
100 200 125
201 210 89
900 1000 174
53 63 113
22 244 128
56 268 128
51 280 128
53 92 116
126 207 125
135 300 128
43 229 125
18 36 112
62 167 122
183 296 128
242 251 110
38 76 116
259 262 123
218 242 128
26 299 128
142 263 128
130 223 125
169 171 125
166 223 125
95 296 128
98 248 128
44 192 125
56 236 128
128 286 128
107 160 122
120 252 128
108 227 125
173 190 107
139 150 117
368 680 145
334 552 142
384 406 121
448 675 145
55 161 122
711 912 179
189 705 171
797 842 135
527 942 179
226 604 144
907 923 130
745 800 153
125 459 144
743 892 179
99 941 179
330 926 179
480 745 171
279 730 171
577 613 132
393 652 145
3563 8191 262
443 9095 262
2633 4486 238
3571 6183 262
2117 7079 262
2912 9831 262
92 486 144
337 1894 182
1826 9429 262
6420 7640 257
2772 9141 262
2519 9021 262
9316 9637 198
3734 7488 262
7235 9176 252
5386 7784 262
4801 6600 262
1428 9918 262
3852 6254 262
9588 9898 242
83 586 144
338 978 179
404 536 142
1196 987 182
106 947 179
5211 3146 238
545 78615 351
2125 8859 262
42803 72643 340
12181 13361 276
33232 42240 324
29777 43990 324
19194 66503 340
33022 66840 340
15506 20755 279
22733 26673 308
30665 64181 340
75924 87235 351
25071 37388 324
23531 94148 351
39714 74110 340
27576 95803 351
44837 96922 351
39193 56593 340
70904 72020 325
76897 89230 351
59583 94739 351
19080 44019 324
88282 94019 333
11505 80375 351
